module github.com/go-gost/gost

go 1.18

replace github.com/templexxx/cpu v0.0.7 => github.com/templexxx/cpu v0.0.10-0.20211111114238-98168dcec14a

require (
	github.com/go-gost/core v0.0.0-20220408131722-a117222cde09
	github.com/go-gost/x v0.0.0-20220408131917-60b30598a264
)

require (
	github.com/aead/chacha20 v0.0.0-20180709150244-8b13a72661da // indirect
	github.com/asaskevich/govalidator v0.0.0-20210307081110-f21760c49a8d // indirect
	github.com/beorn7/perks v1.0.1 // indirect
	github.com/cespare/xxhash/v2 v2.1.2 // indirect
	github.com/cheekybits/genny v1.0.0 // indirect
	github.com/coreos/go-iptables v0.5.0 // indirect
	github.com/docker/libcontainer v2.2.1+incompatible // indirect
	github.com/fsnotify/fsnotify v1.5.1 // indirect
	github.com/gin-contrib/cors v1.3.1 // indirect
	github.com/gin-contrib/sse v0.1.0 // indirect
	github.com/gin-gonic/gin v1.7.7 // indirect
	github.com/go-gost/gosocks4 v0.0.1 // indirect
	github.com/go-gost/gosocks5 v0.3.1-0.20211109033403-d894d75b7f09 // indirect
	github.com/go-gost/relay v0.1.1-0.20211123134818-8ef7fd81ffd7 // indirect
	github.com/go-gost/tls-dissector v0.0.2-0.20220408131628-aac992c27451 // indirect
	github.com/go-playground/locales v0.14.0 // indirect
	github.com/go-playground/universal-translator v0.18.0 // indirect
	github.com/go-playground/validator/v10 v10.10.1 // indirect
	github.com/go-task/slim-sprig v0.0.0-20210107165309-348f09dbbbc0 // indirect
	github.com/gobwas/glob v0.2.3 // indirect
	github.com/golang/protobuf v1.5.2 // indirect
	github.com/golang/snappy v0.0.4 // indirect
	github.com/google/gopacket v1.1.19 // indirect
	github.com/gorilla/websocket v1.5.0 // indirect
	github.com/hashicorp/hcl v1.0.0 // indirect
	github.com/json-iterator/go v1.1.12 // indirect
	github.com/klauspost/cpuid v1.3.1 // indirect
	github.com/klauspost/reedsolomon v1.9.9 // indirect
	github.com/leodido/go-urn v1.2.1 // indirect
	github.com/lucas-clemente/quic-go v0.25.0 // indirect
	github.com/magiconair/properties v1.8.6 // indirect
	github.com/marten-seemann/qpack v0.2.1 // indirect
	github.com/marten-seemann/qtls-go1-16 v0.1.4 // indirect
	github.com/marten-seemann/qtls-go1-17 v0.1.0 // indirect
	github.com/marten-seemann/qtls-go1-18 v0.1.0-beta.1 // indirect
	github.com/mattn/go-isatty v0.0.14 // indirect
	github.com/matttproud/golang_protobuf_extensions v1.0.1 // indirect
	github.com/miekg/dns v1.1.47 // indirect
	github.com/milosgajdos/tenus v0.0.3 // indirect
	github.com/mitchellh/mapstructure v1.4.3 // indirect
	github.com/mmcloughlin/avo v0.0.0-20200803215136-443f81d77104 // indirect
	github.com/modern-go/concurrent v0.0.0-20180306012644-bacd9c7ef1dd // indirect
	github.com/modern-go/reflect2 v1.0.2 // indirect
	github.com/nxadm/tail v1.4.8 // indirect
	github.com/onsi/ginkgo v1.16.5 // indirect
	github.com/pelletier/go-toml v1.9.4 // indirect
	github.com/pkg/errors v0.9.1 // indirect
	github.com/prometheus/client_golang v1.12.1 // indirect
	github.com/prometheus/client_model v0.2.0 // indirect
	github.com/prometheus/common v0.32.1 // indirect
	github.com/prometheus/procfs v0.7.3 // indirect
	github.com/riobard/go-bloom v0.0.0-20200614022211-cdc8013cb5b3 // indirect
	github.com/rs/xid v1.3.0 // indirect
	github.com/shadowsocks/go-shadowsocks2 v0.1.5 // indirect
	github.com/shadowsocks/shadowsocks-go v0.0.0-20200409064450-3e585ff90601 // indirect
	github.com/sirupsen/logrus v1.8.1 // indirect
	github.com/songgao/water v0.0.0-20200317203138-2b4b6d7c09d8 // indirect
	github.com/spf13/afero v1.8.2 // indirect
	github.com/spf13/cast v1.4.1 // indirect
	github.com/spf13/jwalterweatherman v1.1.0 // indirect
	github.com/spf13/pflag v1.0.5 // indirect
	github.com/spf13/viper v1.10.1 // indirect
	github.com/subosito/gotenv v1.2.0 // indirect
	github.com/templexxx/cpu v0.0.7 // indirect
	github.com/templexxx/xorsimd v0.4.1 // indirect
	github.com/tjfoc/gmsm v1.3.2 // indirect
	github.com/ugorji/go/codec v1.2.7 // indirect
	github.com/xtaci/kcp-go/v5 v5.6.1 // indirect
	github.com/xtaci/smux v1.5.16 // indirect
	github.com/xtaci/tcpraw v1.2.25 // indirect
	golang.org/x/crypto v0.0.0-20220315160706-3147a52a75dd // indirect
	golang.org/x/mod v0.6.0-dev.0.20220106191415-9b9b3d81d5e3 // indirect
	golang.org/x/net v0.0.0-20220225172249-27dd8689420f // indirect
	golang.org/x/sys v0.0.0-20220315194320-039c03cc5b86 // indirect
	golang.org/x/text v0.3.7 // indirect
	golang.org/x/tools v0.1.10 // indirect
	golang.org/x/xerrors v0.0.0-20200804184101-5ec99f83aff1 // indirect
	google.golang.org/genproto v0.0.0-20220126215142-9970aeb2e350 // indirect
	google.golang.org/grpc v1.45.0 // indirect
	google.golang.org/protobuf v1.27.1 // indirect
	gopkg.in/ini.v1 v1.66.4 // indirect
	gopkg.in/tomb.v1 v1.0.0-20141024135613-dd632973f1e7 // indirect
	gopkg.in/yaml.v2 v2.4.0 // indirect
)
